…
naturer_dfc
```

    ## # A tibble: 1,221 × 9
    ##    sex      age age_group eop_size_mm eop_size eop_visibility_classif… eop_shape
    ##    <chr>  <dbl> <chr>     <chr>       <chr>    <chr>                       <dbl>
    ##  1 Male      18 18-30     14.8        10-15    eop size >= 5 mm                3
    ##  2 Male      26 18-30     17.1        15-20    eop size >= 5 mm                3
    ##  3 Female    22 18-30     0           0-5      0 < eop size mm <= 5           NA
    ##  4 Male      20 18-30     23.9        20=25    eop size >= 5 mm                1
    ##  5 Female    27 18-30     0           0-5      eop size 0 mm                  NA
    ##  6 Female    28 18-30     7.9         5-10     eop size >= 5 mm                2
    ##  7 Female    17 >18       6.4         5-10     eop size >= 5 mm                1
    ##  8 Male      21 18-30     9.4         5-10     eop size >= 5 mm                2
    ##  9 Female    25 18-30     0           0-5      eop size 0 mm                  NA
    ## 10 Male      30 18-30     16.5        15-20    eop size >= 5 mm                2
    ## # … with 1,211 more rows, and 2 more variables: fhp_size_mm <dbl>,
    ## #   fhp_category <chr>
…
